[gd_scene load_steps=5 format=2]

[ext_resource path="res://Assets/img/Laser.png" type="Texture" id=1]
[ext_resource path="res://Assets/sound/Lazer.wav" type="AudioStream" id=2]
[ext_resource path="res://Bullet.gd" type="Script" id=3]

[sub_resource type="RectangleShape2D" id=1]
extents = Vector2( 7.07874, 2.47247 )

[node name="Bullet" type="RigidBody2D"]
gravity_scale = 0.0
linear_velocity = Vector2( 200, 0 )
script = ExtResource( 3 )

[node name="Sprite" type="Sprite" parent="."]
position = Vector2( 3, 0 )
texture = ExtResource( 1 )

[node name="Collision" type="CollisionShape2D" parent="."]
position = Vector2( 0.921255, 0.472471 )
shape = SubResource( 1 )

[node name="VisibilityNotifier2D" type="VisibilityNotifier2D" parent="."]
position = Vector2( 3, 0.5 )
scale = Vector2( 0.9, 0.35 )

[node name="BulletSound" type="AudioStreamPlayer" parent="."]
stream = ExtResource( 2 )
volume_db = -10.0

[connection signal="screen_exited" from="VisibilityNotifier2D" to="." method="queue_free"]
