[gd_scene load_steps=3 format=2]

[ext_resource path="res://Assets/img/Ship.png" type="Texture" id=1]
[ext_resource path="res://Ship.gd" type="Script" id=2]

[node name="Ship" type="Area2D"]
script = ExtResource( 2 )

[node name="Sprite" type="Sprite" parent="."]
texture = ExtResource( 1 )

[node name="Collision" type="CollisionPolygon2D" parent="."]
polygon = PoolVector2Array( -8, -5, -7, -5, -5, -3, -4, -3, -2, -7, 5, -7, 6, -6, 6, -5, 2, -5, 2, -3, 3, -3, 3, -2, 4, -1, 8, -1, 8, 1, 4, 1, 3, 2, 3, 3, 2, 3, 2, 5, 6, 5, 6, 6, 5, 7, -2, 7, -4, 3, -5, 3, -7, 5, -8, 5, -8, 3, -7, 3, -6, 2, -6, -2, -7, -3, -8, -3 )

[node name="VisibilityNotifier2D" type="VisibilityNotifier2D" parent="."]
position = Vector2( 0, 4.17233e-07 )
scale = Vector2( 0.8, 0.8 )

[connection signal="area_entered" from="." to="." method="_on_Ship_area_entered"]
[connection signal="screen_exited" from="VisibilityNotifier2D" to="." method="_on_VisibilityNotifier2D_screen_exited"]
