[gd_scene load_steps=6 format=2]

[ext_resource path="res://Ship.tscn" type="PackedScene" id=1]
[ext_resource path="res://World.gd" type="Script" id=2]
[ext_resource path="res://EnemySpawner.tscn" type="PackedScene" id=3]
[ext_resource path="res://Assets/font/PixelFont.tres" type="DynamicFont" id=4]

[sub_resource type="ParticlesMaterial" id=1]
emission_shape = 2
emission_box_extents = Vector3( 1, 90, 1 )
flag_disable_z = true
spread = 0.0
gravity = Vector3( 0, 0, 0 )
initial_velocity = -100.0
initial_velocity_random = 0.5
orbit_velocity = 0.0
orbit_velocity_random = 0.0

[node name="World" type="Node" groups=[
"World",
]]
script = ExtResource( 2 )

[node name="Background" type="ColorRect" parent="."]
anchor_right = 1.0
anchor_bottom = 1.0
color = Color( 0, 0, 0, 1 )
__meta__ = {
"_edit_lock_": true,
"_edit_use_anchors_": false
}

[node name="StarParticles" type="Particles2D" parent="."]
position = Vector2( 320, 90 )
amount = 128
lifetime = 5.0
preprocess = 5.0
process_material = SubResource( 1 )

[node name="Ship" parent="." instance=ExtResource( 1 )]
position = Vector2( 32, 90 )
z_index = 1

[node name="EnemySpawner" parent="." instance=ExtResource( 3 )]

[node name="ScoreLabel" type="Label" parent="."]
anchor_right = 1.0
margin_bottom = 12.0
custom_fonts/font = ExtResource( 4 )
text = "Score: 0"
align = 1
valign = 1
__meta__ = {
"_edit_use_anchors_": false
}

[connection signal="player_death" from="Ship" to="." method="_on_Ship_player_death"]
