[gd_scene load_steps=4 format=2]

[ext_resource path="res://Assets/sound/Explosion.wav" type="AudioStream" id=1]

[sub_resource type="ParticlesMaterial" id=1]
flag_disable_z = true
spread = 180.0
gravity = Vector3( 0, 0, 0 )
initial_velocity = 50.0
initial_velocity_random = 1.0
orbit_velocity = 0.0
orbit_velocity_random = 0.0

[sub_resource type="Animation" id=2]
resource_name = "HitEffect"
length = 0.4
tracks/0/type = "method"
tracks/0/path = NodePath(".")
tracks/0/interp = 1
tracks/0/loop_wrap = true
tracks/0/imported = false
tracks/0/enabled = true
tracks/0/keys = {
"times": PoolRealArray( 0.4 ),
"transitions": PoolRealArray( 1 ),
"values": [ {
"args": [  ],
"method": "queue_free"
} ]
}
tracks/1/type = "value"
tracks/1/path = NodePath("HitParticles:emitting")
tracks/1/interp = 1
tracks/1/loop_wrap = true
tracks/1/imported = false
tracks/1/enabled = true
tracks/1/keys = {
"times": PoolRealArray( 0.1 ),
"transitions": PoolRealArray( 1 ),
"update": 1,
"values": [ true ]
}

[node name="HitEffect" type="Node2D"]

[node name="AudioStreamPlayer" type="AudioStreamPlayer" parent="."]
stream = ExtResource( 1 )
volume_db = -35.0
autoplay = true

[node name="HitParticles" type="Particles2D" parent="."]
lifetime = 0.4
explosiveness = 1.0
process_material = SubResource( 1 )

[node name="AnimationPlayer" type="AnimationPlayer" parent="."]
autoplay = "HitEffect"
anims/HitEffect = SubResource( 2 )
